[gd_scene load_steps=4 format=2]

[ext_resource path="res://Resources/Sprites/placeholder.png" type="Texture" id=1]
[ext_resource path="res://Scripts/Slot/SlotGame.gd" type="Script" id=2]
[ext_resource path="res://Scenes/Slot/Components/Footer.tscn" type="PackedScene" id=3]

[node name="SlotGame" type="Control"]
anchor_right = 1.0
anchor_bottom = 1.0
script = ExtResource( 2 )
__meta__ = {
"_edit_use_anchors_": false
}

[node name="Bg" type="TextureRect" parent="."]
anchor_right = 1.0
anchor_bottom = 1.0
texture = ExtResource( 1 )
expand = true
stretch_mode = 7
__meta__ = {
"_edit_use_anchors_": false
}

[node name="BoardBg" type="TextureRect" parent="."]
anchor_left = 0.5
anchor_top = 0.5
anchor_right = 0.5
anchor_bottom = 0.5
margin_left = -15.0
margin_top = -15.0
margin_right = 15.0
margin_bottom = 15.0
texture = ExtResource( 1 )
__meta__ = {
"_edit_use_anchors_": false
}

[node name="Board" type="Control" parent="."]
anchor_left = 0.5
anchor_top = 0.5
anchor_right = 0.5
anchor_bottom = 0.5
margin_left = -20.0
margin_top = -20.0
margin_right = 20.0
margin_bottom = 20.0
rect_min_size = Vector2( 40, 40 )
rect_clip_content = true
__meta__ = {
"_edit_use_anchors_": false
}

[node name="ShadowTop" type="TextureRect" parent="."]
anchor_left = 0.5
anchor_top = 0.5
anchor_right = 0.5
anchor_bottom = 0.5
margin_left = -19.7456
margin_top = -129.08
margin_right = 10.2544
margin_bottom = -99.0801
texture = ExtResource( 1 )
__meta__ = {
"_edit_use_anchors_": false
}

[node name="ShadowBottom" type="TextureRect" parent="."]
anchor_left = 0.5
anchor_top = 0.5
anchor_right = 0.5
anchor_bottom = 0.5
margin_left = -18.1657
margin_top = 98.6786
margin_right = 11.8343
margin_bottom = 128.679
texture = ExtResource( 1 )
__meta__ = {
"_edit_use_anchors_": false
}

[node name="Footer" parent="." instance=ExtResource( 3 )]
